
{
        "formID": 97,
        "accountno": null,
        "adcal": null,
        "addressref": null,
        "basement1": null,
        "basement2": null,
        "basement3": null,
        "basement4": null,
        "bldgname": null,
        "bldgrefid": null,
        "bldgstatus": null,
        "bldgsubtyp": null,
        "bldgtype": null,
        "bldgunder": null,
        "bldgusage": null,
        "bathroom": null,
        "buildingDetails": [
            "2",
            "1",
            "3"
        ],
        "car_porch": null,
        "car_porch_area": null,
        "cast_name": null,
        "cattles": null,
        "no_of_cattles": null,
        "water_source_types": [],
        "cenAc": null,
        "common_stair": null,
        "common_stair_area": null,
        "consumerno": null,
        "copystatus": null,
        "creationda": null,
        "creator": null,
        "cultivated_land": null,
        "district": null,
        "doorstatus": null,
        "editdate": null,
        "editor": null,
        "electricit": null,
        "emailid": null,
        "establishment_name": null,
        "establishment_email": null,
        "establishment_landline": null,
        "establishment_mobile": null,
        "establishment_type": null,
        "establishment_year": null,
        "financial_support": null,
        "floor1": null,
        "floor10": null,
        "floor11": null,
        "floor12": null,
        "floor13": null,
        "floor14": null,
        "floor15": null,
        "floor2": null,
        "floor3": null,
        "floor4": null,
        "floor5": null,
        "floor6": null,
        "floor7": null,
        "floor8": null,
        "floor9": null,
        "floorsqmtr": null,
        "floor_area": [],
        "floortype": [
            "3",
            "4"
        ],
        "floor_count": 1,
        "property_count": 1,
        "gas_connection": null,
        "gid": null,
        "globalid": null,
        "grndfloor": 1,
        "gstno": null,
        "health_insurance": null,
        "incharge": null,
        "inchargero": null,
        "informedby": null,
        "common_remarks": null,
        "landmark": null,
        "landmarkca": null,
        "landmarkna": null,
        "landmarksu": null,
        "latrine": null,
        "licence": null,
        "licenceno": null,
        "localbody": null,
        "location_pincode": null,
        "memberdeta": null,
        "nearprono": null,
        "nearroad": null,
        "newproid": null,
        "noofbaseme": null,
        "noofemploy": null,
        "nooffloors": null,
        "noofmem": null,
        "noofrooms": null,
        "noofyears": null,
        "norftypes": null,
        "oldproid": null,
        "oldprorema": null,
        "otherbldg": null,
        "owneradd": null,
        "ownerland": null,
        "ownername": null,
        "owner_house_name": null,
        "owner_place": null,
        "owner_postoffice": null,
        "owner_pincode": null,
        "owner_state": null,
        "owner_email": null,
        "owneroccup": null,
        "ownerphone": null,
        "well_perennial": null,
        "well_perennial_month": null,
        "paultry": null,
        "petdog": null,
        "place": null,
        "plot_area": null,
        "postoffice": null,
        "property_id": null,
        "ptstatus": null,
        "rain_water_harvest": null,
        "rationca1": null,
        "rationcard": null,
        "religion": null,
        "remarks": null,
        "rentamout": null,
        "roadtype": null,
        "roadwidth": null,
        "roofrepCo": null,
        "rooftotper": null,
        "sameaddr": null,
        "sourcetype": null,
        "stair": null,
        "street": null,
        "structure_type": null,
        "four_wheeler": null,
        "four_wheeler_type": null,
        "surveyno": null,
        "annual_tax_amount": null,
        "tax_amount": null,
        "tax_paid_date": null,
        "taxnumber": null,
        "tax_paid_year": null,
        "tenentadd": null,
        "tenentemai": null,
        "tenant_house_name": null,
        "tenentland": null,
        "tenentname": null,
        "tenentnati": null,
        "tenentphon": null,
        "tenant_pincode": null,
        "tenant_postoffice": null,
        "tenant_street": null,
        "tenant_state": null,
        "thozhilurappu": null,
        "kudumbasree": null,
        "uncultivated_land": null,
        "uniqueid": null,
        "village_name": null,
        "wardname": null,
        "wardno": null,
        "waste_managment": null,
        "waste_managment_type": [],
        "kwa_water": null,
        "yearofcons": null,
        "zone": null,
        "memberDetail": [
            {
                "memberID": 4,
                "age": "k",
                "creationda": "k",
                "creator": "k",
                "disability": "k",
                "diseases": "k",
                "disper": "k",
                "editdate": "k",
                "editor": "k",
                "educategor": "k",
                "edutype": "k",
                "globalid": "k",
                "job": "k",
                "maritstat": null,
                "name": "k",
                "parentglob": "k",
                "pension": [
                    "PENSION_A",
                    "PENSION_B"
                ],
                "disease": [
                    "DISEASE_1",
                    "DISEASE_2"
                ],
                "sex": "k"
            }
        ],
        "floorDetails": [
            {
                "floor_details_id": 21,
                "floor_no": "1",
                "floor_area": "11"
            }
        ],
        "basementDetails": [],
        "roofType": [
            {
                "roofTypeID": 4,
                "creationda": null,
                "creator": null,
                "editdate": null,
                "editor": null,
                "globalid": null,
                "parentglob": null,
                "rftypeper": null,
                "rooftype": null
            }
        ],
        "propertyImage1": null,
        "propertyImage2": null,
        "version": 1
    }